<?xml version="1.0" encoding="utf-8"?>
<!-- Svg Vector Icons : http://www.onlinewebfonts.com/icon -->
<!DOCTYPE svg PUBLIC "-//W3C//DTD SVG 1.1//EN" "http://www.w3.org/Graphics/SVG/1.1/DTD/svg11.dtd">
<svg version="1.1" xmlns="http://www.w3.org/2000/svg" xmlns:xlink="http://www.w3.org/1999/xlink" x="0px" y="0px" viewBox="0 0 1000 1000" enable-background="new 0 0 1000 1000" xml:space="preserve">
<metadata> Svg Vector Icons : http://www.onlinewebfonts.com/icon </metadata>
<g><path d="M206,10C140.9,10,88.4,62.5,88.4,127.6v744.8C88.4,937.5,140.9,990,206,990h705.6v-39.2H206c-44.6,0-78.4-33.8-78.4-78.4S161.4,794,206,794h686h19.6v-19.6V29.6V10H892H206z M206,49.2h666.4v705.6H206c-30.5,0-57.5,12.3-78.4,31.2V127.6C127.6,83,161.4,49.2,206,49.2z M500,147.2v39.2h39.2v-39.2H500z M500,225.6v39.2h39.2v-39.2H500z M500,304v39.2h39.2V304H500z M500,382.4v207l-83.9-83.9l-28.2,28.2l117.6,117.6c0,7.8,6.3,14.1,14.1,14.1c7.8,0,14.1-6.3,14.1-14.1l117.6-117.6l-28.2-28.2l-83.9,83.9v-207H500z"/></g>
</svg>