<?xml version="1.0" encoding="iso-8859-1"?>
<!-- Generator: Adobe Illustrator 19.0.0, SVG Export Plug-In . SVG Version: 6.00 Build 0)  -->
<svg version="1.1" id="Capa_1" xmlns="http://www.w3.org/2000/svg" xmlns:xlink="http://www.w3.org/1999/xlink" x="0px" y="0px"
	 viewBox="0 0 488.236 488.236" style="enable-background:new 0 0 488.236 488.236;" xml:space="preserve">
<polygon style="fill:#D4E1F4;" points="473.339,85.98 473.339,387.433 245.029,429.751 16.718,387.433 16.718,85.98 67.918,95.384 
	68.441,95.384 68.441,344.07 245.029,376.984 245.551,376.984 421.616,344.07 421.616,95.384 422.661,95.384 "/>
<polygon style="fill:#4DCFE0;" points="421.616,95.384 421.616,344.07 245.551,376.984 245.029,374.372 245.029,92.249 
	421.616,59.857 "/>
<polygon style="fill:#00BBD3;" points="245.029,374.372 245.551,376.984 245.029,376.984 68.441,344.07 68.441,95.384 
	68.441,59.857 245.029,92.249 "/>
<path style="fill:#3A2C51;" d="M483.265,73.963c-3.657-3.135-8.359-4.18-13.061-3.135l-33.437,6.269V60.38
	c0-4.702-2.09-8.882-5.747-12.016s-8.359-4.18-13.061-3.135L245.029,76.053L71.053,44.184c-4.702-1.045-9.404,0.522-13.061,3.135
	c-3.657,3.135-5.747,7.314-5.747,12.016v16.718l-33.437-6.269c-4.702-1.045-9.404,0.522-13.061,3.135C2.09,76.053,0,80.233,0,84.935
	v301.453c0,7.314,5.224,14.106,13.061,15.673l228.31,42.318c1.045,0,2.09,0,2.612,0c0.522,0,2.09,0,2.612,0l228.31-42.318
	c7.314-1.567,13.061-7.837,13.061-15.673V85.98C489.012,81.278,486.922,77.098,483.265,73.963z M260.702,105.31l145.241-26.645
	v252.343l-145.241,27.167V105.31z M84.114,78.665l145.241,26.645v252.865L84.114,331.008V78.665z M457.665,374.372l-212.637,39.184
	L32.392,374.372V104.788l20.376,3.657V344.07c0,7.314,5.224,14.106,13.061,15.151l176.588,32.914c1.045,0,2.09,0.522,2.612,0.522
	h0.522c1.045,0,2.09,0,3.135-0.522l176.065-32.914c7.314-1.567,12.539-7.837,12.539-15.151V108.445l20.376-3.657V374.372z"/>
<g>
</g>
<g>
</g>
<g>
</g>
<g>
</g>
<g>
</g>
<g>
</g>
<g>
</g>
<g>
</g>
<g>
</g>
<g>
</g>
<g>
</g>
<g>
</g>
<g>
</g>
<g>
</g>
<g>
</g>
</svg>
