<?xml version="1.0" encoding="iso-8859-1"?>
<!-- Generator: Adobe Illustrator 19.0.0, SVG Export Plug-In . SVG Version: 6.00 Build 0)  -->
<svg version="1.1" id="Capa_1" xmlns="http://www.w3.org/2000/svg" xmlns:xlink="http://www.w3.org/1999/xlink" x="0px" y="0px"
	 viewBox="0 0 512 512" style="enable-background:new 0 0 512 512;" xml:space="preserve">
<circle style="fill:#F7F0E6;" cx="256" cy="256" r="256"/>
<circle style="fill:#EEE2D4;" cx="256" cy="256" r="182.45"/>
<path style="fill:#FFD29B;" d="M354.851,184.001L245.422,436.53c63.134,7.649,125.581-24.967,151.334-84.396
	S403.605,224.837,354.851,184.001z"/>
<path style="fill:#FFC173;" d="M372.925,254.098c3.255,46.009,21.911,60.939-0.471,87.508
	c-21.909,26.006-36.534,28.452-63.635,56.083c-17.888,18.238-38.904,18.411-52.287,13.201l-11.11,25.639
	c63.134,7.649,125.581-24.967,151.333-84.396c25.753-59.429,6.849-127.297-41.905-168.133l-11.14,25.71
	C358.936,215.347,371.637,235.894,372.925,254.098z"/>
<path style="fill:#C89673;" d="M399.887,225.976c20.791,39.861,23.434,87.057,4.965,129.67
	c-26.867,61.996-91.36,98.026-160.496,89.643c-4.841-0.586-8.287-4.992-7.699-9.82c0.584-4.845,4.986-8.289,9.828-7.703
	c61.304,7.431,118.436-24.38,142.168-79.14s7.886-118.192-39.472-157.856c-3.724-3.113-4.236-8.7-1.1-12.436
	c3.133-3.734,8.7-4.227,12.436-1.1C377.214,191.22,390.427,207.838,399.887,225.976z"/>
<ellipse transform="matrix(0.3036 -0.9528 0.9528 0.3036 -55.9404 535.3049)" style="fill:#FFE2AB;" cx="338.226" cy="305.921" rx="22.898" ry="18.207"/>
<path style="fill:#FFD29B;" d="M145.751,273.84l234.194-144.564c-47.414-42.383-117.294-51.343-172.408-17.322
	S129.114,212.459,145.751,273.84z"/>
<path style="fill:#FFC173;" d="M171.015,206.002c23.644-39.603,16.879-62.52,50.435-71.513c32.846-8.803,46.241-2.444,84.276-9.61
	c25.104-4.73,42.443,7.148,50.441,19.075l23.778-14.678c-47.414-42.383-117.294-51.343-172.408-17.322
	s-78.424,100.505-61.786,161.886l23.843-14.718C160.328,245.79,161.66,221.672,171.015,206.002z"/>
<path style="fill:#C89673;" d="M132.814,213.65c5.743-44.589,30.568-84.816,70.09-109.208
	c57.496-35.49,131.007-28.16,182.925,18.258c3.636,3.25,3.943,8.835,0.699,12.459c-3.25,3.64-8.831,3.947-12.467,0.698
	c-46.038-41.158-111.096-47.738-161.883-16.391s-74.067,92.442-57.904,152.064c1.274,4.684-1.501,9.559-6.21,10.83
	c-4.705,1.271-9.554-1.509-10.83-6.21C131.536,255.128,130.201,233.939,132.814,213.65z"/>
<circle style="fill:#FFE2AB;" cx="223.44" cy="178.76" r="20.598"/>
<g>
	
		<ellipse transform="matrix(-0.5733 -0.8193 0.8193 -0.5733 185.7757 626.3863)" style="fill:#FF6464;" cx="255.988" cy="264.82" rx="17.654" ry="14.712"/>
	
		<ellipse transform="matrix(0.629 -0.7774 0.7774 0.629 -39.3091 288.3789)" style="fill:#FF6464;" cx="282.486" cy="185.374" rx="17.655" ry="14.713"/>
	
		<ellipse transform="matrix(-0.6181 -0.7861 0.7861 -0.6181 138.7376 332.2195)" style="fill:#FF6464;" cx="150.068" cy="132.409" rx="17.655" ry="15.448"/>
	
		<ellipse transform="matrix(0.9842 -0.1768 0.1768 0.9842 -53.8826 66.1559)" style="fill:#FF6464;" cx="344.279" cy="335.429" rx="17.654" ry="15.815"/>
</g>
<ellipse transform="matrix(0.5 -0.866 0.866 0.5 -258.8644 310.797)" style="fill:#D75050;" cx="139.73" cy="379.585" rx="17.655" ry="16.15"/>
<g>
	<path style="fill:#87CD6E;" d="M223.44,178.759c-1.388,0-2.802-0.328-4.121-1.026c-4.31-2.28-5.957-7.625-3.672-11.931l4.966-9.379
		c2.284-4.302,7.603-5.97,11.931-3.672c4.31,2.28,5.957,7.625,3.672,11.931l-4.966,9.379
		C229.664,177.052,226.603,178.759,223.44,178.759z"/>
	<path style="fill:#87CD6E;" d="M368.009,287.448c-3.069,0-6.043-1.595-7.672-4.448l-6.621-11.586
		c-2.422-4.233-0.948-9.625,3.284-12.043c4.224-2.422,9.621-0.948,12.043,3.284l6.621,11.586c2.422,4.233,0.948,9.625-3.284,12.043
		C371,287.073,369.491,287.448,368.009,287.448z"/>
</g>
<g>
	<path style="fill:#ADDF6E;" d="M409.017,194.944c-2.802,0-5.552-1.328-7.267-3.806c-2.776-4.009-1.776-9.509,2.233-12.28
		l9.569-6.621c4.009-2.784,9.509-1.776,12.284,2.237c2.776,4.009,1.776,9.509-2.233,12.28l-9.569,6.621
		C412.5,194.435,410.75,194.944,409.017,194.944z"/>
	<path style="fill:#ADDF6E;" d="M69.138,246.435c-1.328,0-2.672-0.297-3.948-0.935c-4.353-2.185-6.121-7.487-3.931-11.845
		l2.948-5.888c2.181-4.358,7.457-6.121,11.845-3.935c4.353,2.185,6.121,7.487,3.931,11.845l-2.948,5.888
		C75.491,244.651,72.371,246.435,69.138,246.435z"/>
	<path style="fill:#ADDF6E;" d="M268.509,322.944c-2.121,0-4.25-0.759-5.94-2.293l-8.095-7.358
		c-3.603-3.28-3.871-8.866-0.595-12.474c3.284-3.599,8.879-3.862,12.474-0.595l8.095,7.358c3.603,3.28,3.871,8.866,0.595,12.474
		C273.302,321.97,270.905,322.944,268.509,322.944z"/>
	<path style="fill:#ADDF6E;" d="M299.414,241.289c-2.56,0-5.095-1.103-6.836-3.237c-3.095-3.772-2.534-9.332,1.233-12.422
		l8.086-6.621c3.784-3.095,9.336-2.534,12.422,1.241c3.095,3.772,2.534,9.332-1.233,12.422L305,239.293
		C303.353,240.634,301.379,241.289,299.414,241.289z"/>
	<path style="fill:#ADDF6E;" d="M297.922,137.565c-1.543,0-3.112-0.405-4.534-1.259l-7.353-4.414
		c-4.181-2.509-5.534-7.931-3.026-12.112c2.509-4.181,7.931-5.543,12.112-3.026l7.353,4.414c4.181,2.509,5.534,7.931,3.026,12.112
		C303.845,136.039,300.922,137.565,297.922,137.565z"/>
	<path style="fill:#ADDF6E;" d="M192.741,97.841c-2.595,0-5.155-1.134-6.905-3.315c-3.043-3.806-2.422-9.362,1.379-12.405
		l3.681-2.944c3.819-3.056,9.362-2.427,12.414,1.379c3.043,3.806,2.422,9.362-1.379,12.405l-3.681,2.944
		C196.621,97.207,194.672,97.841,192.741,97.841z"/>
	<path style="fill:#ADDF6E;" d="M328.836,397.241c-3.129,0-6.155-1.664-7.759-4.599l-4.414-8.091
		c-2.336-4.28-0.759-9.642,3.526-11.978c4.259-2.341,9.638-0.759,11.974,3.522l4.414,8.091c2.336,4.28,0.759,9.642-3.526,11.978
		C331.716,396.897,330.267,397.241,328.836,397.241z"/>
</g>
<path style="fill:#FFD29B;" d="M297.82,394.506L124.524,180.698c-35.979,52.44-35.939,122.892,4.844,173.208
	S239.067,418.848,297.82,394.506z"/>
<path style="fill:#FFC173;" d="M227.31,378.115c-42.299-18.391-64.164-8.754-77.37-40.886c-12.926-31.452-8.331-45.55-20.297-82.358
	c-7.898-24.294,1.668-43.009,12.476-52.464l-17.595-21.708c-35.979,52.44-35.939,122.892,4.844,173.208
	c40.783,50.317,109.699,64.942,168.453,40.6l-17.643-21.767C268.138,383.632,244.047,385.392,227.31,378.115z"/>
<path style="fill:#C89673;" d="M239.776,415.026c-44.957,0-88.026-19.483-117.267-55.565
	c-42.543-52.491-44.664-126.336-5.259-183.759c2.759-4.022,8.259-5.039,12.267-2.284c4.026,2.759,5.043,8.254,2.284,12.276
	c-34.94,50.918-33.155,116.284,4.422,162.651s101.147,61.651,158.216,38.004c4.483-1.862,9.672,0.267,11.534,4.776
	c1.862,4.504-0.276,9.668-4.776,11.534C281.078,410.996,260.233,415.026,239.776,415.026z"/>
<ellipse style="fill:#FFE2AB;" cx="200" cy="326.35" rx="19.586" ry="18.483"/>
<path style="fill:#ADDF6E;" d="M158.897,308.966c-4.879,0-8.828-3.953-8.828-8.828v-17.655c0-4.875,3.948-8.828,8.828-8.828
	c4.879,0,8.828,3.953,8.828,8.828v17.655C167.724,305.013,163.776,308.966,158.897,308.966z"/>
<path style="fill:#87CD6E;" d="M203.034,353.103h-8.828c-4.879,0-8.828-3.953-8.828-8.828s3.948-8.828,8.828-8.828h8.828
	c4.879,0,8.828,3.953,8.828,8.828S207.914,353.103,203.034,353.103z"/>
<g>
	<path style="fill:#D75050;" d="M281.81,178.904c0.94-3.799,2.498-7.148,4.378-9.988c-5.29-0.322-11.079,2.186-15.143,7.209
		c-6.133,7.58-5.985,17.869,0.332,22.98c3.822,3.092,9.021,3.542,13.894,1.767C281.189,196.202,279.619,187.762,281.81,178.904z"/>
	<path style="fill:#D75050;" d="M152.27,137.548c-5.375-6.836-5.484-15.892-0.695-21.518c-4.374-0.998-8.893-0.267-12.419,2.504
		c-6.707,5.274-7.259,15.762-1.232,23.427c6.026,7.665,16.349,9.604,23.056,4.331c0.726-0.571,1.345-1.227,1.926-1.909
		C158.96,143.483,155.129,141.184,152.27,137.548z"/>
	<path style="fill:#D75050;" d="M259.026,271.791c-5.321-7.605-4.729-17.204,1.077-22.133c-4.8-2.222-10.129-2.162-14.225,0.704
		c-6.658,4.658-7.523,14.912-1.933,22.901c5.591,7.989,15.519,10.689,22.177,6.031c0.321-0.224,0.562-0.518,0.856-0.767
		C263.975,277.136,261.177,274.866,259.026,271.791z"/>
	<path style="fill:#D75050;" d="M338.485,331.949c-0.786-4.376,0.536-8.682,3.273-12.093c-0.094,0.016-0.185,0.008-0.279,0.025
		c-9.597,1.724-16.124,10.091-14.58,18.689c1.545,8.598,10.577,14.169,20.174,12.445c4.712-0.846,8.667-3.306,11.307-6.596
		C348.888,345.985,340.015,340.462,338.485,331.949z"/>
</g>
<g>
</g>
<g>
</g>
<g>
</g>
<g>
</g>
<g>
</g>
<g>
</g>
<g>
</g>
<g>
</g>
<g>
</g>
<g>
</g>
<g>
</g>
<g>
</g>
<g>
</g>
<g>
</g>
<g>
</g>
</svg>
